{
  "project_info": {
    "project_number": "518949312592",
    "project_id": "ziacare-beneficiary-94bdc",
    "storage_bucket": "ziacare-beneficiary-94bdc.appspot.com"
  },
  "client": [
    {
      "client_info": {
        "mobilesdk_app_id": "1:518949312592:android:fd425b2ec45774b4101955",
        "android_client_info": {
          "package_name": "com.ziacare.beneficiary"
        }
      },
      "oauth_client": [
        {
          "client_id": "518949312592-kf4vmbn6ajjiicbtspfgcpdn2kbk1js3.apps.googleusercontent.com",
          "client_type": 3
        }
      ],
      "api_key": [
        {
          "current_key": "AIzaSyCe_b2YzcQanlcc3lxlGDJe422w1bx0MYk"
        }
      ],
      "services": {
        "appinvite_service": {
          "other_platform_oauth_client": [
            {
              "client_id": "518949312592-kf4vmbn6ajjiicbtspfgcpdn2kbk1js3.apps.googleusercontent.com",
              "client_type": 3
            }
          ]
        }
      }
    },
    {
      "client_info": {
        "mobilesdk_app_id": "1:518949312592:android:c4b6331598786c79101955",
        "android_client_info": {
          "package_name": "com.ziacare.donor"
        }
      },
      "oauth_client": [
        {
          "client_id": "518949312592-kf4vmbn6ajjiicbtspfgcpdn2kbk1js3.apps.googleusercontent.com",
          "client_type": 3
        }
      ],
      "api_key": [
        {
          "current_key": "AIzaSyCe_b2YzcQanlcc3lxlGDJe422w1bx0MYk"
        }
      ],
      "services": {
        "appinvite_service": {
          "other_platform_oauth_client": [
            {
              "client_id": "518949312592-kf4vmbn6ajjiicbtspfgcpdn2kbk1js3.apps.googleusercontent.com",
              "client_type": 3
            }
          ]
        }
      }
    },
    {
      "client_info": {
        "mobilesdk_app_id": "1:518949312592:android:19a2cc453060cf48101955",
        "android_client_info": {
          "package_name": "com.ziacare.facilitator"
        }
      },
      "oauth_client": [
        {
          "client_id": "518949312592-kf4vmbn6ajjiicbtspfgcpdn2kbk1js3.apps.googleusercontent.com",
          "client_type": 3
        }
      ],
      "api_key": [
        {
          "current_key": "AIzaSyCe_b2YzcQanlcc3lxlGDJe422w1bx0MYk"
        }
      ],
      "services": {
        "appinvite_service": {
          "other_platform_oauth_client": [
            {
              "client_id": "518949312592-kf4vmbn6ajjiicbtspfgcpdn2kbk1js3.apps.googleusercontent.com",
              "client_type": 3
            }
          ]
        }
      }
    }
  ],
  "configuration_version": "1"
}